#kO,error kO,ADC, Gain 1
0.07,0.0034,45,0.067
0.33,0.0165,203,0.33
0.39,0.0195,236,0.39
0.82,0.041,488,0.82
1.20,0.06,705,1.19
1.50,0.075,868,1.48
2.00,0.02,1159,1.99
6.80,0.34,3521,6.7
12.00,0.6,5662,11.91
15.00,0.75,6754,15.02
22.00,1.1,8755,21.68
29.82,0.96,10839,29.81
40.20,1.95,12702,39.8
51.00,2.04,14226,50.2
56.00,2.8,14700,55.7
60.80,1.94,15379,59.9
70.82,3.4,16523,71.9
82.00,4.1,17007,80.9
90.80,4.11,17870,89.5
102.00,3.62,18574,101.8
154.00,7.7,20233,149