# Calibration: gain 1 on 2023-07-14 14:03:10
POL 2, Chi2: 904.65524, NDF: 18, Chi2/NDF: 5.03e+01
P      param            error             rel
0      3.749 1e+00      2.858 1e+00       0.76
1     -2.323 1e-03      0.878 1e-03       0.38
2     41.781 1e-08      4.679 1e-08       0.11
POL 3, Chi2: 168.74656, NDF: 17, Chi2/NDF: 9.93e+00
P      param            error             rel
0     -1.771 1e+00      1.423 1e+00       0.80
1      4.998 1e-03      0.936 1e-03       0.19
2    -58.736 1e-08     11.858 1e-08       0.20
3      3.415 1e-11      0.397 1e-11       0.12
POL 4, Chi2: 52.65577, NDF: 16, Chi2/NDF: 3.29e+00
P      param            error             rel
0      1.076 1e+00      0.949 1e+00       0.88
1     -1.047 1e-03      1.152 1e-03       1.10
2     90.734 1e-08     26.076 1e-08       0.29
3     -8.238 1e-11      1.975 1e-11       0.24
4      0.285 1e-14      0.048 1e-14       0.17
POL 5, Chi2: 25.61121, NDF: 15, Chi2/NDF: 1.71e+00
P      param            error             rel
0     -0.647 1e+00      0.809 1e+00       1.25
1      3.604 1e-03      1.433 1e-03       0.40
2    -85.383 1e-08     48.073 1e-08       0.56
3     15.348 1e-11      6.095 1e-11       0.40
4     -1.018 1e-14      0.329 1e-14       0.32
5      2.536 1e-19      0.637 1e-19       0.25
