# Calibration: gain 4 on 2023-07-26 19:07:10
POL 1, Chi2: 36.39635, NDF: 8, Chi2/NDF: 4.55e+00
P      param            error             rel
0     -0.012 1e+00      0.004 1e+00       0.31
1      0.439 1e-03      0.004 1e-03       0.01
POL 2, Chi2: 0.20036, NDF: 7, Chi2/NDF: 2.86e-02
P      param            error             rel
0     -0.004 1e+00      0.004 1e+00       0.86
1      0.408 1e-03      0.007 1e-03       0.02
2      0.535 1e-08      0.089 1e-08       0.17
POL 3, Chi2: 0.14144, NDF: 6, Chi2/NDF: 2.36e-02
P      param            error             rel
0     -0.005 1e+00      0.005 1e+00       0.95
1      0.412 1e-03      0.016 1e-03       0.04
2      0.439 1e-08      0.405 1e-08       0.92
3      0.004 1e-11      0.014 1e-11       4.12
