#kOhm, adc(20230616, Gain 23, Uku)
0.067,30
0.33,135 
0.39,157
0.82,326
1.19,470
1.48,580
1.99,772
6.7,2347
11.91,3775
15.02,4503
21.68,5834
29.81,7226
39.8,8467
50.2,9482
55.7,9799
59.9,10252
70.2,10920
80.9,11338
89.5,11913
101.8,12381
149.0,13488
